Question,Option 1,Option 2,Option 3,Option 4,Answer
Text Question 1 CSV,Test 1,Test 2,Test 3,Test 4,1
Text Question 2 CSV,Test 11,Test 12,Test 13,Test 14,2
Text Question 3 CSV,Test 21,Test 22,Test 23,Test 24,3
